{
    "KPackageStructure": "Wallpaper/Images",
    "KPlugin": {
        "Authors": [
            {
                "Email": "aseigo@kde.org",
                "Name": "Aaron Seigo",
                "Name[ar]": "Aaron Seigo",
                "Name[az]": "Aaron Seigo",
                "Name[ca]": "Aaron Seigo",
                "Name[cs]": "Aaron Seigo",
                "Name[de]": "Aaron Seigo",
                "Name[en_GB]": "Aaron Seigo",
                "Name[es]": "Aaron Seigo",
                "Name[eu]": "Aaron Seigo",
                "Name[fi]": "Aaron Seigo",
                "Name[fr]": "Aaron Seigo",
                "Name[hu]": "Aaron Seigo",
                "Name[ia]": "Aaron Seigo",
                "Name[id]": "Aaron Seigo",
                "Name[it]": "Aaron Seigo",
                "Name[ko]": "Aaron Seigo",
                "Name[lt]": "Aaron Seigo",
                "Name[nl]": "Aaron Seigo",
                "Name[nn]": "Aaron Seigo",
                "Name[pl]": "Aaron Seigo",
                "Name[pt_BR]": "Aaron Seigo",
                "Name[ro]": "Aaron Seigo",
                "Name[ru]": "Aaron Seigo",
                "Name[sk]": "Aaron Seigo",
                "Name[sl]": "Aaron Seigo",
                "Name[sv]": "Aaron Seigo",
                "Name[tr]": "Aaron Seigo",
                "Name[uk]": "Aaron Seigo",
                "Name[vi]": "Aaron Seigo",
                "Name[x-test]": "xxAaron Seigoxx",
                "Name[zh_CN]": "Aaron Seigo"
            }
        ],
        "Name": "Wallpaper Images",
        "Name[ar]": "صور خلفيات",
        "Name[az]": "Divar Kağızı şəkilləri",
        "Name[bs]": "Pozadinske slike",
        "Name[ca@valencia]": "Imatges de fons de pantalla",
        "Name[ca]": "Imatges de fons de pantalla",
        "Name[cs]": "Tapety",
        "Name[da]": "Baggrundsbilleder",
        "Name[de]": "Hintergrundbilder",
        "Name[el]": "Εικόνες ταπετσαρίας",
        "Name[en_GB]": "Wallpaper Images",
        "Name[es]": "Imágenes de fondo del escritorio",
        "Name[et]": "Taustapildid",
        "Name[eu]": "Horma-papereko irudiak",
        "Name[fi]": "Taustakuvat",
        "Name[fr]": "Images de fond d'écran",
        "Name[gl]": "Fondos de escritorio",
        "Name[he]": "תמונת רקע",
        "Name[hi]": "वाॅलपेपर छवियाँ",
        "Name[hsb]": "Wobrazy w pozadku dźěłoweho powjercha",
        "Name[hu]": "Háttérképek",
        "Name[ia]": "Images de tapete de papiro",
        "Name[id]": "Citra Wallpaper",
        "Name[is]": "Bakgrunnsmyndir",
        "Name[it]": "Immagini di sfondo",
        "Name[ja]": "壁紙画像",
        "Name[ko]": "배경 그림",
        "Name[lt]": "Darbalaukio fono paveikslai",
        "Name[lv]": "Tapešu attēli",
        "Name[ml]": "പശ്ചാത്തലചിത്രങ്ങൾ",
        "Name[nb]": "Tapetbilder",
        "Name[nl]": "Achtergrondafbeeldingen",
        "Name[nn]": "Bakgrunnsbilete",
        "Name[pa]": "ਵਾਲਪੇਪਰ ਚਿੱਤਰ",
        "Name[pl]": "Obrazy tapet",
        "Name[pt]": "Imagens do Papel de Parede",
        "Name[pt_BR]": "Papéis de parede",
        "Name[ro]": "Imagini de tapet",
        "Name[ru]": "Изображения для обоев",
        "Name[sk]": "Obrázky tapety",
        "Name[sl]": "Slike ozadja",
        "Name[sr@ijekavian]": "Тапетне слике",
        "Name[sr@ijekavianlatin]": "Tapetne slike",
        "Name[sr@latin]": "Tapetne slike",
        "Name[sr]": "Тапетне слике",
        "Name[sv]": "Skrivbordsunderlägg",
        "Name[ta]": "பின்னணிக்கான படங்கள்",
        "Name[tr]": "Duvar Kağıdı Resimleri",
        "Name[uk]": "Зображення шпалер",
        "Name[vi]": "Ảnh phông nền",
        "Name[x-test]": "xxWallpaper Imagesxx",
        "Name[zh_CN]": "壁纸图像",
        "Name[zh_TW]": "桌布影像",
        "Version": "1"
    },
    "X-KDE-ParentApp": "org.kde.plasmashell"
}
